^C:\USERS\JOSE'S PC\SOURCE\REPOS\BASPRG3 EX 1\BASPRG3 EX 1\WEAPON.CPP
/c /ZI /JMC /nologo /W3 /WX- /diagnostics:classic /sdl /Od /Oy- /D _MBCS /Gm- /EHsc /RTC1 /MDd /GS /fp:precise /permissive- /Zc:wchar_t /Zc:forScope /Zc:inline /Fo"DEBUG\\" /Fd"DEBUG\VC142.PDB" /Gd /TP /analyze- /FC C:\USERS\JOSE'S PC\SOURCE\REPOS\BASPRG3 EX 1\BASPRG3 EX 1\WEAPON.CPP
^C:\USERS\JOSE'S PC\SOURCE\REPOS\BASPRG3 EX 1\BASPRG3 EX 1\SKILL.CPP
/c /ZI /JMC /nologo /W3 /WX- /diagnostics:classic /sdl /Od /Oy- /D _MBCS /Gm- /EHsc /RTC1 /MDd /GS /fp:precise /permissive- /Zc:wchar_t /Zc:forScope /Zc:inline /Fo"DEBUG\\" /Fd"DEBUG\VC142.PDB" /Gd /TP /analyze- /FC C:\USERS\JOSE'S PC\SOURCE\REPOS\BASPRG3 EX 1\BASPRG3 EX 1\SKILL.CPP
^C:\USERS\JOSE'S PC\SOURCE\REPOS\BASPRG3 EX 1\BASPRG3 EX 1\SOURCE.CPP
/c /ZI /JMC /nologo /W3 /WX- /diagnostics:classic /sdl /Od /Oy- /D _MBCS /Gm- /EHsc /RTC1 /MDd /GS /fp:precise /permissive- /Zc:wchar_t /Zc:forScope /Zc:inline /Fo"DEBUG\\" /Fd"DEBUG\VC142.PDB" /Gd /TP /analyze- /FC C:\USERS\JOSE'S PC\SOURCE\REPOS\BASPRG3 EX 1\BASPRG3 EX 1\SOURCE.CPP
^C:\USERS\JOSE'S PC\SOURCE\REPOS\BASPRG3 EX 1\BASPRG3 EX 1\SKILLSYPHON.CPP
/c /ZI /JMC /nologo /W3 /WX- /diagnostics:classic /sdl /Od /Oy- /D _MBCS /Gm- /EHsc /RTC1 /MDd /GS /fp:precise /permissive- /Zc:wchar_t /Zc:forScope /Zc:inline /Fo"DEBUG\\" /Fd"DEBUG\VC142.PDB" /Gd /TP /analyze- /FC C:\USERS\JOSE'S PC\SOURCE\REPOS\BASPRG3 EX 1\BASPRG3 EX 1\SKILLSYPHON.CPP
^C:\USERS\JOSE'S PC\SOURCE\REPOS\BASPRG3 EX 1\BASPRG3 EX 1\SKILLVENGANCE.CPP
/c /ZI /JMC /nologo /W3 /WX- /diagnostics:classic /sdl /Od /Oy- /D _MBCS /Gm- /EHsc /RTC1 /MDd /GS /fp:precise /permissive- /Zc:wchar_t /Zc:forScope /Zc:inline /Fo"DEBUG\\" /Fd"DEBUG\VC142.PDB" /Gd /TP /analyze- /FC C:\USERS\JOSE'S PC\SOURCE\REPOS\BASPRG3 EX 1\BASPRG3 EX 1\SKILLVENGANCE.CPP
^C:\USERS\JOSE'S PC\SOURCE\REPOS\BASPRG3 EX 1\BASPRG3 EX 1\CHARACTER.CPP
/c /ZI /JMC /nologo /W3 /WX- /diagnostics:classic /sdl /Od /Oy- /D _MBCS /Gm- /EHsc /RTC1 /MDd /GS /fp:precise /permissive- /Zc:wchar_t /Zc:forScope /Zc:inline /Fo"DEBUG\\" /Fd"DEBUG\VC142.PDB" /Gd /TP /analyze- /FC C:\USERS\JOSE'S PC\SOURCE\REPOS\BASPRG3 EX 1\BASPRG3 EX 1\CHARACTER.CPP
