^C:\USERS\JOSE'S PC\SOURCE\REPOS\FINALS V 0.1\FINALS V 0.1\DUNGEONS.CPP
/c /ZI /JMC /nologo /W3 /WX- /diagnostics:classic /sdl /Od /Oy- /D _MBCS /Gm- /EHsc /RTC1 /MDd /GS /fp:precise /permissive- /Zc:wchar_t /Zc:forScope /Zc:inline /Fo"DEBUG\\" /Fd"DEBUG\VC142.PDB" /Gd /TP /analyze- /FC C:\USERS\JOSE'S PC\SOURCE\REPOS\FINALS V 0.1\FINALS V 0.1\DUNGEONS.CPP
^C:\USERS\JOSE'S PC\SOURCE\REPOS\FINALS V 0.1\FINALS V 0.1\ARMOUR.CPP
/c /ZI /JMC /nologo /W3 /WX- /diagnostics:classic /sdl /Od /Oy- /D _MBCS /Gm- /EHsc /RTC1 /MDd /GS /fp:precise /permissive- /Zc:wchar_t /Zc:forScope /Zc:inline /Fo"DEBUG\\" /Fd"DEBUG\VC142.PDB" /Gd /TP /analyze- /FC C:\USERS\JOSE'S PC\SOURCE\REPOS\FINALS V 0.1\FINALS V 0.1\ARMOUR.CPP
^C:\USERS\JOSE'S PC\SOURCE\REPOS\FINALS V 0.1\FINALS V 0.1\WEAPON.CPP
/c /ZI /JMC /nologo /W3 /WX- /diagnostics:classic /sdl /Od /Oy- /D _MBCS /Gm- /EHsc /RTC1 /MDd /GS /fp:precise /permissive- /Zc:wchar_t /Zc:forScope /Zc:inline /Fo"DEBUG\\" /Fd"DEBUG\VC142.PDB" /Gd /TP /analyze- /FC C:\USERS\JOSE'S PC\SOURCE\REPOS\FINALS V 0.1\FINALS V 0.1\WEAPON.CPP
^C:\USERS\JOSE'S PC\SOURCE\REPOS\FINALS V 0.1\FINALS V 0.1\SHOP.CPP
/c /ZI /JMC /nologo /W3 /WX- /diagnostics:classic /sdl /Od /Oy- /D _MBCS /Gm- /EHsc /RTC1 /MDd /GS /fp:precise /permissive- /Zc:wchar_t /Zc:forScope /Zc:inline /Fo"DEBUG\\" /Fd"DEBUG\VC142.PDB" /Gd /TP /analyze- /FC C:\USERS\JOSE'S PC\SOURCE\REPOS\FINALS V 0.1\FINALS V 0.1\SHOP.CPP
^C:\USERS\JOSE'S PC\SOURCE\REPOS\FINALS V 0.1\FINALS V 0.1\PLAYER.CPP
/c /ZI /JMC /nologo /W3 /WX- /diagnostics:classic /sdl /Od /Oy- /D _MBCS /Gm- /EHsc /RTC1 /MDd /GS /fp:precise /permissive- /Zc:wchar_t /Zc:forScope /Zc:inline /Fo"DEBUG\\" /Fd"DEBUG\VC142.PDB" /Gd /TP /analyze- /FC C:\USERS\JOSE'S PC\SOURCE\REPOS\FINALS V 0.1\FINALS V 0.1\PLAYER.CPP
^C:\USERS\JOSE'S PC\SOURCE\REPOS\FINALS V 0.1\FINALS V 0.1\LOCATION.CPP
/c /ZI /JMC /nologo /W3 /WX- /diagnostics:classic /sdl /Od /Oy- /D _MBCS /Gm- /EHsc /RTC1 /MDd /GS /fp:precise /permissive- /Zc:wchar_t /Zc:forScope /Zc:inline /Fo"DEBUG\\" /Fd"DEBUG\VC142.PDB" /Gd /TP /analyze- /FC C:\USERS\JOSE'S PC\SOURCE\REPOS\FINALS V 0.1\FINALS V 0.1\LOCATION.CPP
^C:\USERS\JOSE'S PC\SOURCE\REPOS\FINALS V 0.1\FINALS V 0.1\MONSTER.CPP
/c /ZI /JMC /nologo /W3 /WX- /diagnostics:classic /sdl /Od /Oy- /D _MBCS /Gm- /EHsc /RTC1 /MDd /GS /fp:precise /permissive- /Zc:wchar_t /Zc:forScope /Zc:inline /Fo"DEBUG\\" /Fd"DEBUG\VC142.PDB" /Gd /TP /analyze- /FC C:\USERS\JOSE'S PC\SOURCE\REPOS\FINALS V 0.1\FINALS V 0.1\MONSTER.CPP
^C:\USERS\JOSE'S PC\SOURCE\REPOS\FINALS V 0.1\FINALS V 0.1\SOURCE.CPP
/c /ZI /JMC /nologo /W3 /WX- /diagnostics:classic /sdl /Od /Oy- /D _MBCS /Gm- /EHsc /RTC1 /MDd /GS /fp:precise /permissive- /Zc:wchar_t /Zc:forScope /Zc:inline /Fo"DEBUG\\" /Fd"DEBUG\VC142.PDB" /Gd /TP /analyze- /FC C:\USERS\JOSE'S PC\SOURCE\REPOS\FINALS V 0.1\FINALS V 0.1\SOURCE.CPP
^C:\USERS\JOSE'S PC\SOURCE\REPOS\FINALS V 0.1\FINALS V 0.1\MAP.CPP
/c /ZI /JMC /nologo /W3 /WX- /diagnostics:classic /sdl /Od /Oy- /D _MBCS /Gm- /EHsc /RTC1 /MDd /GS /fp:precise /permissive- /Zc:wchar_t /Zc:forScope /Zc:inline /Fo"DEBUG\\" /Fd"DEBUG\VC142.PDB" /Gd /TP /analyze- /FC C:\USERS\JOSE'S PC\SOURCE\REPOS\FINALS V 0.1\FINALS V 0.1\MAP.CPP
